%YAML 1.1
%TAG !u! tag:unity3d.com,2011:
--- !u!21 &2100000
Material:
  serializedVersion: 6
  m_ObjectHideFlags: 0
  m_PrefabParentObject: {fileID: 0}
  m_PrefabInternal: {fileID: 0}
  m_Name: 0_B_Y_007_Add_02_xc
  m_Shader: {fileID: 4800000, guid: c964ea33011eaae41a98d4d507826fb8, type: 3}
  m_ShaderKeywords: ENABLE_DISSLOVE ENABLE_DISSLOVE_OUTLINE ENABLE_DISSLOVE_VERTEX_COLOR
    _ALPHA_BLEND
  m_LightmapFlags: 1
  m_EnableInstancingVariants: 0
  m_DoubleSidedGI: 0
  m_CustomRenderQueue: 3000
  stringTagMap:
    RenderType: Transparent
  disabledShaderPasses: []
  m_SavedProperties:
    serializedVersion: 3
    m_TexEnvs:
    - _BumpMap:
        m_Texture: {fileID: 0}
        m_Scale: {x: 1, y: 1}
        m_Offset: {x: 0, y: 0}
    - _DecalTex:
        m_Texture: {fileID: 0}
        m_Scale: {x: 1, y: 1}
        m_Offset: {x: 0, y: 0}
    - _DetailAlbedoMap:
        m_Texture: {fileID: 0}
        m_Scale: {x: 1, y: 1}
        m_Offset: {x: 0, y: 0}
    - _DetailMask:
        m_Texture: {fileID: 0}
        m_Scale: {x: 1, y: 1}
        m_Offset: {x: 0, y: 0}
    - _DetailNormalMap:
        m_Texture: {fileID: 0}
        m_Scale: {x: 1, y: 1}
        m_Offset: {x: 0, y: 0}
    - _DissloveTex:
        m_Texture: {fileID: 2800000, guid: 0a4fde6f069e28645a1382cff110601c, type: 3}
        m_Scale: {x: 1, y: 1}
        m_Offset: {x: 0, y: 0}
    - _EmissionMap:
        m_Texture: {fileID: 0}
        m_Scale: {x: 1, y: 1}
        m_Offset: {x: 0, y: 0}
    - _GlowTex:
        m_Texture: {fileID: 0}
        m_Scale: {x: 1, y: 1}
        m_Offset: {x: 0, y: 0}
    - _MainTex:
        m_Texture: {fileID: 2800000, guid: 5ecbd03c53333e14f951598e50381f3a, type: 3}
        m_Scale: {x: 1, y: 1}
        m_Offset: {x: 0, y: 0}
    - _MetallicGlossMap:
        m_Texture: {fileID: 0}
        m_Scale: {x: 1, y: 1}
        m_Offset: {x: 0, y: 0}
    - _OcclusionMap:
        m_Texture: {fileID: 0}
        m_Scale: {x: 1, y: 1}
        m_Offset: {x: 0, y: 0}
    - _ParallaxMap:
        m_Texture: {fileID: 0}
        m_Scale: {x: 1, y: 1}
        m_Offset: {x: 0, y: 0}
    - _UVNoise:
        m_Texture: {fileID: 0}
        m_Scale: {x: 1, y: 1}
        m_Offset: {x: 0, y: 0}
    m_Floats:
    - _BumpScale: 1
    - _ColorMask: 15
    - _CullMode: 0
    - _Cutoff: 0.5
    - _DetailNormalMapScale: 1
    - _DissloveAmount: 0.1
    - _DissloveOutlineStep: 0.1
    - _DstBlend: 1
    - _GlossMapScale: 1
    - _Glossiness: 0.5
    - _GlossyReflections: 1
    - _InvFade: 1
    - _Metallic: 0
    - _Mode: 0
    - _OcclusionStrength: 1
    - _OffsetFactor: 0
    - _OffsetUnits: 0
    - _Parallax: 0.02
    - _RenderingMode: 1
    - _RimFresnel: 1
    - _RimIntensity: 1
    - _RimLightFresnel: 1
    - _RimLightIntensity: 1
    - _SmoothnessTextureChannel: 0
    - _SpecularHighlights: 1
    - _SrcBlend: 5
    - _Stencil: 0
    - _StencilComp: 8
    - _StencilOp: 0
    - _StencilReadMask: 255
    - _StencilWriteMask: 255
    - _UVNoiseBias: 0.6
    - _UVNoiseIntensity: 0.5
    - _UVSec: 0
    - _UseUIAlphaClip: 0
    - _ZWrite: 0
    m_Colors:
    - _Color: {r: 1, g: 1, b: 1, a: 1}
    - _DissloveOutlineColor: {r: 1, g: 1, b: 1, a: 1}
    - _EmissionColor: {r: 0, g: 0, b: 0, a: 1}
    - _GlowColor: {r: 1, g: 1, b: 1, a: 1}
    - _GlowSpeed: {r: 0, g: 0, b: 0, a: 0}
    - _RimColor: {r: 1, g: 1, b: 1, a: 1}
    - _RimLightColor: {r: 1, g: 1, b: 1, a: 1}
    - _TintColor: {r: 0.53676474, g: 0.53676474, b: 0.53676474, a: 0.428}
    - _UVNoiseSpeed: {r: 0, g: 0, b: 0, a: 0}
