%YAML 1.1
%TAG !u! tag:unity3d.com,2011:
--- !u!1045 &1
EditorBuildSettings:
  m_ObjectHideFlags: 0
  serializedVersion: 2
  m_Scenes:
  - enabled: 1
    path: Assets/Scenes/Home.unity
    guid: 1d0d5d598d4106c40921ced0c5237f02
  - enabled: 1
    path: Assets/Scenes/Fighting.unity
    guid: 9fc0d4010bbf28b4594072e72b8655ab
  m_configObjects: {}
