%YAML 1.1
%TAG !u! tag:unity3d.com,2011:
--- !u!21 &2100000
Material:
  serializedVersion: 6
  m_ObjectHideFlags: 0
  m_PrefabParentObject: {fileID: 0}
  m_PrefabInternal: {fileID: 0}
  m_Name: 11_kgh 2
  m_Shader: {fileID: 4800000, guid: 9d8623c2cfdd4ee4e88f0773a511111d, type: 3}
  m_ShaderKeywords: ENABLE_DECAL _ALPHA_BLEND _DECAL_CHANNEL_G
  m_LightmapFlags: 4
  m_EnableInstancingVariants: 0
  m_DoubleSidedGI: 0
  m_CustomRenderQueue: 3000
  stringTagMap:
    RenderType: Transparent
  disabledShaderPasses: []
  m_SavedProperties:
    serializedVersion: 3
    m_TexEnvs:
    - _DecalTex:
        m_Texture: {fileID: 2800000, guid: 74a6f4749574409489ada40e584deb95, type: 3}
        m_Scale: {x: 1, y: 1}
        m_Offset: {x: 0, y: 0}
    - _DissloveTex:
        m_Texture: {fileID: 0}
        m_Scale: {x: 1, y: 1}
        m_Offset: {x: 0, y: 0}
    - _GlowTex:
        m_Texture: {fileID: 0}
        m_Scale: {x: 1, y: 1}
        m_Offset: {x: 0, y: 0}
    - _MainTex:
        m_Texture: {fileID: 2800000, guid: e24044e756ff41940a4ced1f88853106, type: 3}
        m_Scale: {x: 1, y: 1}
        m_Offset: {x: 0, y: 0}
    - _UVNoise:
        m_Texture: {fileID: 0}
        m_Scale: {x: 1, y: 1}
        m_Offset: {x: 0, y: 0}
    m_Floats:
    - _Alpha: 1
    - _AlphaFactor: 1
    - _ColorMask: 15
    - _CullMode: 0
    - _Cutoff: 0.1
    - _DissloveAmount: 0.1
    - _DissloveOutlineStep: 0.1
    - _DstBlend: 1
    - _InvFade: 1
    - _OffsetFactor: 0
    - _OffsetUnits: -666666
    - _RenderingMode: 1
    - _RimFresnel: 1
    - _RimIntensity: 1
    - _RimLightFresnel: 1
    - _RimLightIntensity: 1
    - _SrcBlend: 5
    - _Stencil: 0
    - _StencilComp: 8
    - _StencilOp: 0
    - _StencilReadMask: 255
    - _StencilWriteMask: 255
    - _UVNoiseBias: 0
    - _UVNoiseIntensity: 0.2
    - _UseUIAlphaClip: 0
    - _ZWrite: 0
    m_Colors:
    - _Color: {r: 1, g: 1, b: 1, a: 1}
    - _DissloveOutlineColor: {r: 1, g: 1, b: 1, a: 1}
    - _GlowColor: {r: 1, g: 1, b: 1, a: 1}
    - _GlowSpeed: {r: 0, g: 0, b: 0, a: 0}
    - _RimColor: {r: 1, g: 1, b: 1, a: 1}
    - _RimLightColor: {r: 1, g: 1, b: 1, a: 1}
    - _TintColor: {r: 0.5, g: 0.5, b: 0.5, a: 0.5}
    - _UVNoiseSpeed: {r: 0, g: 0, b: 0, a: 0}
