%YAML 1.1
%TAG !u! tag:unity3d.com,2011:
--- !u!114 &11400000
MonoBehaviour:
  m_ObjectHideFlags: 0
  m_CorrespondingSourceObject: {fileID: 0}
  m_PrefabInstance: {fileID: 0}
  m_PrefabAsset: {fileID: 0}
  m_GameObject: {fileID: 0}
  m_Enabled: 1
  m_EditorHideFlags: 0
  m_Script: {fileID: 11500000, guid: a038718204d22e546bc2ec574a08cebf, type: 3}
  m_Name: DBCharacter
  m_EditorClassIdentifier: 
  listCharacter:
  - ID: 0
    name: Dog
    baseAttack: 5
    baseHP: 5000
    moveSpeed: 1
    attackSpeed: 1
    attackSound: {fileID: 8300000, guid: 7048d32be4472394eadb0cfa80a2a827, type: 3}
    skill1Sound: {fileID: 8300000, guid: 6f4b2c8b92966e446a0bd16d85924342, type: 3}
    skill2Sound: {fileID: 8300000, guid: 48a3cfedee1b4314aad5970ed99ec75e, type: 3}
    skill3Sound: {fileID: 8300000, guid: 0f763f3d115df9447a5778022c66ec55, type: 3}
    skill4Sound: {fileID: 8300000, guid: c6bef6e96722a5242bdc11c3dcf9c1a5, type: 3}
    skill5Sound: {fileID: 8300000, guid: 81032102103925243959f92d2215591b, type: 3}
    icon: {fileID: 21300000, guid: 07be33a8860b7734caf74bc775aa9933, type: 3}
  - ID: 1
    name: Cat
    baseAttack: 5
    baseHP: 5000
    moveSpeed: 1
    attackSpeed: 1
    attackSound: {fileID: 8300000, guid: 611b57dd48151ad4eba08fc88be8c78b, type: 3}
    skill1Sound: {fileID: 8300000, guid: 17e0b9fb3f536e54d84ad97d022c1e69, type: 3}
    skill2Sound: {fileID: 8300000, guid: cfc536503edda1c418baa8eedd6ae6a1, type: 3}
    skill3Sound: {fileID: 8300000, guid: 5668a612d6cd6c346be371c0d2626b51, type: 3}
    skill4Sound: {fileID: 8300000, guid: 0c8873ff810a6ea468d4fba17bc4f248, type: 3}
    skill5Sound: {fileID: 8300000, guid: 666905cb2ae61b04a8dc4dca9b50ce78, type: 3}
    icon: {fileID: 21300000, guid: 4196fd842e7a4de468602b86fb2d5085, type: 3}
